{
  "swagger": "2.0",
  "info": {
    "version": "1.0.0",
    "title": "Servizi di protocollazione",
    "contact": {
      "name": "Tiziano Lattisi",
      "email": "tiziano@axiastudio.it",
      "url": "http://www.axiastudio.com"
    }
  },
  "basePath": "/gda-ws/rest",
  "schemes": [
    "http"
  ],
  "consumes": [
    "application/json"
  ],
  "produces": [
    "application/json"
  ],
  "paths": {
    "/protocollazione/{iddocumento}/nuovaattribuzione": {
      "put": {
        "description": "Richiede l'aggiunta di una nuova attribuzione al protocollo.",
        "produces": [
          "application/json"
        ],
        "parameters": [
          {
            "in": "path",
            "name": "iddocumento",
            "description": "Numero di protocollo (anno + numero, es. 201500000006).",
            "required": true,
            "type": "string"
          },
          {
            "name": "richiesta",
            "in": "body",
            "description": "La richiesta di nuova attribuzione.",
            "required": true,
            "schema": {
              "$ref": "#/definitions/NuovaAttribuzioneRequest"
            }
          }
        ],
        "responses": {
          "202": {
            "description": "Richiesta di nuova attribuzione accettata."
          },
          "default": {
            "description": "errore inaspettato",
            "schema": {
              "$ref": "#/definitions/errorModel"
            }
          }
        }
      }
    },
    "/protocollazione/{iddocumento}/{hash}/annullamento": {
      "put": {
        "description": "Richiede l'annullamento del protocollo.",
        "produces": [
          "application/json"
        ],
        "parameters": [
          {
            "in": "path",
            "name": "iddocumento",
            "description": "Numero di protocollo (anno + numero, es. 201500000006).",
            "required": true,
            "type": "string"
          },
          {
            "in": "path",
            "name": "hash",
            "description": "Hash di validazione.",
            "required": true,
            "type": "string"
          }
        ],
        "responses": {
          "202": {
            "description": "Richiesta di annullamento accettata."
          },
          "default": {
            "description": "errore inaspettato",
            "schema": {
              "$ref": "#/definitions/errorModel"
            }
          }
        }
      }
    },
    "/protocollazione": {

      "post": {
        "description": "Richiede la creazione di un nuovo protocollo.",
        "produces": [
          "application/json"
        ],
        "parameters": [
          {
            "name": "richiesta",
            "in": "body",
            "description": "La richiesta di inserimento del nuovo protocollo.",
            "required": true,
            "schema": {
              "$ref": "#/definitions/ProtocollazioneRequest"
            }
          }
        ],
        "responses": {
          "201": {
            "description": "Nuovo protocollo generato con successo",
            "schema": {
              "$ref": "#/definitions/ProtocollazioneResponse"
            }
          },
          "default": {
            "description": "errore inaspettato",
            "schema": {
              "$ref": "#/definitions/errorModel"
            }
          }
        }
      }
    }
  },
  "definitions": {
    "NuovaAttribuzioneRequest": {
      "required": [
        "ufficio"
      ],
      "properties": {
        "ufficio": {
          "type": "string"
        },
        "principale": {
          "type": "boolean"
        },
        "lettaprecedente": {
          "type": "boolean"
        }
      }
    },
    "ProtocollazioneRequest": {
      "required": [
        "oggetto",
        "mittente",
        "ufficiodestinatario"
      ],
      "properties": {
        "oggetto": {
          "type": "string"
        },
        "cfmittente": {
          "type": "string"
        },
        "pivamittente": {
          "type": "string"
        },
        "estremimittente": {
          "type": "string"
        },
        "idmessaggio": {
          "type": "string"
        },
        "progressivodocumento": {
          "type": "string"
        },
        "progressivoallegato": {
          "type": "string"
        },
        "ufficiodestinatario": {
          "type": "string"
        }
      }
    },
    "ProtocollazioneResponse": {
      "properties": {
        "protocollo": {
          "description": "Il protocollo generato.",
          "schema": {
            "$ref": "#/definitions/Protocollo"
          }
        }
      }
    },
    "errorModel": {
      "required": [
        "code",
        "message"
      ],
      "properties": {
        "code": {
          "type": "integer",
          "format": "int32"
        },
        "message": {
          "type": "string"
        }
      }
    }
  }
}